{
    "restartable": "rs",
    "ignore": [".git", "node_modules/**/node_modules", "build/"],
    "verbose": true,
    "watch": ["src"],
    "execMap": {
        "ts": "node -r ts-node/register"
    },
    "ext": "ts,js,json"
}
